1
00:00:05,811 --> 00:00:06,511
Здравствуйте.

2
00:00:06,511 --> 00:00:09,721
Сегодняшний урок будет посвящен обращению со строкой символов.

3
00:00:09,721 --> 00:00:11,931
Для чего они. И как их использовать.

4
00:00:12,306 --> 00:00:16,866
Что такое строка символов? Это массив составленный из <b>char</b>.

5
00:00:17,281 --> 00:00:21,020
Помните урок D03 о массивах?

6
00:00:21,020 --> 00:00:23,900
Это просто массив типа <b>char</b>.

7
00:00:24,421 --> 00:00:30,671
Объявим наш массив <b>char</b>.

8
00:00:33,792 --> 00:00:35,692
Составим main().

9
00:00:35,692 --> 00:00:40,472
Так, тип <b>char</b>. Нам нужны квадратные скобки,

10
00:00:45,711 --> 00:00:48,621
это семантика массива.

11
00:00:48,621 --> 00:00:52,621
Давайте присвоим значение нашему массиву: "Привет".

12
00:00:54,091 --> 00:00:59,211
В принципе, справа, имеется исчерпывающее представление

13
00:00:59,211 --> 00:01:01,111
памяти.

14
00:01:01,111 --> 00:01:06,231
Как хранится наша строка символов?

15
00:01:07,251 --> 00:01:11,251
Мы просто имеем, в поле 0,

16
00:01:11,731 --> 00:01:15,231
символ "H", в поле 1, символ "e"

17
00:01:15,231 --> 00:01:16,941
и так далее.

18
00:01:20,310 --> 00:01:26,330
Символьные строки имеют особенность:

19
00:01:26,330 --> 00:01:30,990
у них есть эксклюзивный способ заканчиваться.

20
00:01:31,332 --> 00:01:36,812
Они используют специальный символ "\0".

21
00:01:38,221 --> 00:01:40,821
Вскоре вы поймете, почему это так полезно.

22
00:01:45,761 --> 00:01:49,761
Переходим от теории к практике!

23
00:01:50,540 --> 00:01:54,540
Давайте создадим функцию ft_putstr(). Вы должны были создать её ранее,

24
00:01:54,540 --> 00:01:58,540
в предыдущие дни учебного лагеря. Так что это подарок ;-)

25
00:01:59,971 --> 00:02:04,751
Давайте передадим ему строку,

26
00:02:04,751 --> 00:02:08,751
и добавим ещё одну функцию: ft_putchar().

27
00:02:11,721 --> 00:02:17,631
Теперь у нас может быть разрыв строки ("\n") в конце программы,

28
00:02:17,631 --> 00:02:18,751
чтобы сделать выводимое функцией более ясным.

29
00:02:20,252 --> 00:02:23,652
Начнём с функции ft_putchar().

30
00:02:23,652 --> 00:02:25,482
Которую, как я уверен, вы теперь знаете наизусть.

31
00:02:26,861 --> 00:02:30,861
Я уверен, что вы также знаете всё о write() тоже,

32
00:02:33,341 --> 00:02:36,041
поэтому мы не будем их оговаривать дополнительно.

33
00:02:36,434 --> 00:02:39,154
write() от 1, с адресом <b>c</b>.

34
00:02:44,961 --> 00:02:52,501
Сердце вопроса - ft_putstr(), она принимает нашу char-строку в качестве параметра.

35
00:02:59,781 --> 00:03:01,801
Что делает ft_putstr()?

36
00:03:01,801 --> 00:03:07,061
Он выполняет итерацию по каждому элементу таблицы <b>char</b>,

37
00:03:07,061 --> 00:03:09,051
чтобы вывести их на экран.

38
00:03:09,250 --> 00:03:11,650
Как они отображается? Он вызывает ft_putchar().

39
00:03:12,361 --> 00:03:18,081
Итак, у нас будет цикл и условие остановки.

40
00:03:22,031 --> 00:03:25,231
Для каждого цикла вызов ft_putchar().

41
00:03:26,851 --> 00:03:27,881
с...

42
00:03:37,231 --> 00:03:39,161
нашей символьной строкой.

43
00:03:40,040 --> 00:03:43,160
Чтобы использовать цикл, нам нужен счётчик.

44
00:03:45,002 --> 00:03:48,692
Итак, давайте инициализируем наш счётчик равным 0.

45
00:03:48,692 --> 00:03:52,692
И мы будем использовать наш счётчик в цикле

46
00:03:53,710 --> 00:03:56,180
с целью пройти через нашу строку.

47
00:03:57,303 --> 00:03:59,983
Наконец, мы увеличим наш счётчик.

48
00:04:01,401 --> 00:04:05,401
Теперь нам нужно выяснить, как заставить его остановиться с условием.

49
00:04:05,981 --> 00:04:09,981
Как узнать, когда строка закончилась?

50
00:04:09,981 --> 00:04:17,021
Вот где "\0" выходит и спасает наши жизни!

51
00:04:18,321 --> 00:04:21,151
Мы просто

52
00:04:24,381 --> 00:04:29,071
останавливаемся, как только сталкиваемся с первым "\0".

53
00:04:43,471 --> 00:04:45,741
Попробуем запустить нашу программу.

54
00:04:47,361 --> 00:04:49,451
gcc test.c

55
00:04:49,870 --> 00:04:51,080
./a.out

56
00:04:53,990 --> 00:04:57,210
Строка отображается на выходе.

57
00:04:57,210 --> 00:04:59,680
Точно так же "\n".

58
00:05:03,683 --> 00:05:07,213
Теперь давайте начнём с манипуляции с символьной строкой.

59
00:05:07,213 --> 00:05:09,433
Мы прошли через нашу строку,

60
00:05:09,433 --> 00:05:13,352
теперь давайте изменим значение внутри нашей строки.

61
00:05:14,301 --> 00:05:19,201
Давайте заменим первый символ.

62
00:05:19,551 --> 00:05:20,771
на "y".

63
00:05:23,204 --> 00:05:31,594
Итак, давайте создадим новую функцию: replace_first_h_with_y().

64
00:05:32,511 --> 00:05:35,701
Ничего особенного в этой функции.

65
00:05:38,841 --> 00:05:44,341
Хотя я уверен, что это поможет вам создать гораздо более полезные функции для сегодняшних упражнений.

66
00:05:45,581 --> 00:05:49,581
Как мы попали в первое поле нашего массива?

67
00:05:50,712 --> 00:05:58,602
str[0], 1-е поле нашего массива = 'y'.

68
00:06:00,911 --> 00:06:05,961
Прервёмся, чтобы проверить, что происходит в памяти.

69
00:06:05,961 --> 00:06:09,961
Мы собираемся заменить 'h', поэтому нужно первое поле массива,

70
00:06:10,322 --> 00:06:11,682
заменить на 'y'.

71
00:06:14,601 --> 00:06:17,121
Так мы наметили.

72
00:06:17,121 --> 00:06:20,611
Для этого нужно вызывать нашу функцию

73
00:06:21,336 --> 00:06:27,266
replace_first_h_with_y (str1).

74
00:06:28,681 --> 00:06:32,981
и сделать некоторую отладку (debugging) чуть выше,

75
00:06:32,981 --> 00:06:34,941
проверить, идёт ли замена.

76
00:06:36,304 --> 00:06:38,474
gcc text.c

77
00:06:38,941 --> 00:06:39,911
./a.out

78
00:06:40,510 --> 00:06:43,980
"Hello", "yello". Отлично!

79
00:06:45,842 --> 00:06:48,952
Давайте создадим ещё одну, уже последнюю функцию для этого урока.

80
00:06:48,952 --> 00:06:52,312
Она принимает 2 строки в качестве параметров.

81
00:06:52,312 --> 00:06:56,111
Первый будет источником (source), вторым будет пункт назначения (destination).

82
00:06:56,111 --> 00:06:59,411
Намерение наше: сделать копию первого символа источника,

83
00:06:59,411 --> 00:07:01,021
разместив его в пункте назначения.

84
00:07:02,081 --> 00:07:05,731
Я начну с объявления второй строки,

85
00:07:07,536 --> 00:07:11,536
str2[] = "yello".

86
00:07:16,008 --> 00:07:20,008
Удалим предыдущую функцию,

87
00:07:24,442 --> 00:07:28,442
И создадим функцию replace_first_char().

88
00:07:44,833 --> 00:07:46,733
(пересборка массива)

89
00:07:46,841 --> 00:07:49,931
У нас есть вторая строка символов.

90
00:08:03,890 --> 00:08:10,350
Мы собираемся скопировать 1-й символ 'h' из нашей строки <b>src</b>

91
00:08:10,357 --> 00:08:12,887
в нашу вторую строку <b>dest</b>.

92
00:08:16,963 --> 00:08:22,423
Первый символ = src[0].

93
00:08:24,242 --> 00:08:34,912
So dest[0] = src[0].
Тогда dest[0] = src[0].

94
00:08:34,912 --> 00:08:45,042
Нам просто нужно вызвать нашу функцию replace_first_char(str1, str2).

95
00:08:46,400 --> 00:08:50,620
И мы будем отображать str1, затем str2.

96
00:08:56,061 --> 00:08:56,991
gcc

97
00:08:58,681 --> 00:08:59,571
./a.out

98
00:08:59,821 --> 00:09:01,471
"hello", "hello", "hello".

99
00:09:01,587 --> 00:09:07,047
Давайте добавим строки отладки, чтобы увидеть str2 перед обработкой.

100
00:09:19,862 --> 00:09:22,882
"hello", "yello", "hello", "hello".

101
00:09:23,388 --> 00:09:26,258
Итак, мы обработали нашу строку.

102
00:09:27,551 --> 00:09:31,551
Это конечно же могла быть обработка не только первого поля массива.

103
00:09:31,551 --> 00:09:35,551
Мы могли бы сделать это для второго поля, третьего и т.д.

104
00:09:35,682 --> 00:09:39,082
Все зависит от задачи.

105
00:09:44,301 --> 00:09:47,251
Я надеюсь, что этот урок об обращении со строками

106
00:09:47,251 --> 00:09:52,041
позволит вам понимать яснее и поможет в сегодняшних упражнениях,

107
00:09:52,041 --> 00:09:57,431
которые в основном касаются циклов и условий того,

108
00:09:57,431 --> 00:10:00,241
когда эти циклы нужны.

109
00:10:01,971 --> 00:10:04,421
Надеюсь, что эта тема, которая была довольно простой,

110
00:10:04,421 --> 00:10:06,911
и которая ещё покажет свою пользу,

111
00:10:06,911 --> 00:10:07,731
было понятна.
