1
00:00:06,539 --> 00:00:07,809
И снова здравствуйте.

2
00:00:07,809 --> 00:00:10,499
В этом видео мы поговорим о символьных строках.

3
00:00:11,149 --> 00:00:14,049
Мы разбирали что такое символ.

4
00:00:14,049 --> 00:00:18,049
Перед нами пример main с символом "c".

5
00:00:18,849 --> 00:00:22,849
Я дал "char c" значение " * " из ASCII.

6
00:00:22,849 --> 00:00:26,079
Поэтому, если я исполню putchar от "char c",

7
00:00:26,079 --> 00:00:28,809
должна быть отображена звезда.

8
00:00:28,809 --> 00:00:32,049
Компиляция ... Запуск. Всё верно!

9
00:00:32,463 --> 00:00:37,103
В предыдущем видео я сделал ошибку. Помните? - Я использовал кавычки (", универсальные)

10
00:00:37,103 --> 00:00:40,163
вместо апострофов (').

11
00:00:40,163 --> 00:00:42,913
Кавычки предназначены для символьных строк.

12
00:00:43,000 --> 00:00:44,880
Итак, что такое символьная строка?

13
00:00:44,952 --> 00:00:48,952
Это ансамбль байтов, один байт за другим.

14
00:00:48,952 --> 00:00:51,662
Собственно это серия байтов, каждый из которых содержит один символ.

15
00:00:51,662 --> 00:00:52,762
И, как правило,

16
00:00:52,762 --> 00:00:56,762
последний элемент этой строки должен быть "\0" или значением "0",

17
00:00:56,762 --> 00:01:00,762
символ ASCII для "\0" или "0", это всё одно и то же.

18
00:01:01,019 --> 00:01:03,569
Фактически, для каждого символа ASCII,

19
00:01:03,569 --> 00:01:07,569
существует "numerical value", определяющее конец строки.

20
00:01:08,666 --> 00:01:10,806
Как мы можем это использовать?

21
00:01:11,269 --> 00:01:12,109
Это просто.

22
00:01:13,088 --> 00:01:19,808
Когда вы наберёте "Toto", написанное будет заменено адресом

23
00:01:19,808 --> 00:01:23,808
1-го элемента символьной строки "toto".

24
00:01:25,032 --> 00:01:27,042
И это адрес "t".

25
00:01:28,634 --> 00:01:29,594
Следите внимательно.

26
00:01:30,078 --> 00:01:32,618
Я только что говорил об адресах...

27
00:01:32,632 --> 00:01:34,492
Мы говорим о указателях.

28
00:01:34,492 --> 00:01:38,492
Вы, вероятно, говорите себе: "Ладно, нам понадобится указатель".

29
00:01:38,764 --> 00:01:40,834
На этот раз я назову его "*str".

30
00:01:40,834 --> 00:01:43,654
Нет, на самом деле я собираюсь назвать это "*ptr", так лучше.

31
00:01:43,654 --> 00:01:46,273
Это то же самое, мы все ещё говорим о указателях.

32
00:01:46,273 --> 00:01:50,273
Я собираюсь написать кое-что, что Норма запрещает.

33
00:01:50,273 --> 00:01:53,153
На самом деле, нет, это просто будет сбивать с толку...

34
00:01:53,497 --> 00:01:59,287
Таким образом, "ptr" равен адресу символьной строки "toto".

35
00:01:59,553 --> 00:02:02,393
Я уже говорил вам, несколько секунд назад,

36
00:02:02,414 --> 00:02:07,134
что "toto" представляет собой последовательность байтов, один за другим, которая заканчивается символом "\0",

37
00:02:07,134 --> 00:02:09,164
и поэтому, когда мы пишем "toto",

38
00:02:09,164 --> 00:02:13,164
символьную строку "toto", мы просто возвращаем адрес 1-го символа.

39
00:02:13,405 --> 00:02:15,795
"ptr" может содержать только адрес.

40
00:02:15,872 --> 00:02:17,522
Это важный факт.

41
00:02:17,534 --> 00:02:19,924
Отныне, и для остальной части видео,

42
00:02:19,964 --> 00:02:22,424
мы поговорим о символьных строках.

43
00:02:22,424 --> 00:02:23,224
Но помните,

44
00:02:23,224 --> 00:02:26,404
когда мы говорим об указателе на строку (строка символов, конечно),

45
00:02:26,404 --> 00:02:28,424
в некотором смысле, это всё ещё указатель на char.

46
00:02:28,424 --> 00:02:31,264
Это указатель на первый элемент строки символов.

47
00:02:31,264 --> 00:02:33,264
И давайте просто надеемся, что в конце концов,

48
00:02:33,264 --> 00:02:36,254
когда вы просмотрите свои байты, благодаря арифметике указателей,

49
00:02:36,254 --> 00:02:38,224
в конце концов, у вас будет "\0",

50
00:02:38,224 --> 00:02:39,594
который скажет вам остановиться.

51
00:02:39,594 --> 00:02:41,114
Но когда вы пишете это,

52
00:02:41,114 --> 00:02:43,754
компилятор автоматически установит "toto" в свою память:

53
00:02:43,754 --> 00:02:46,484
char "t", char "o", char "t", char "o" AND char "\0".

54
00:02:46,965 --> 00:02:50,965
А затем вернёт адрес первого символа, поэтому "t".

55
00:02:53,539 --> 00:02:54,779
Вот доказательство.

56
00:02:55,115 --> 00:03:03,965
Если я выведу на экран "*ptr" - элемент, на который указывает "ptr" -

57
00:03:07,910 --> 00:03:09,900
смотрите, вот мой "t".

58
00:03:13,205 --> 00:03:17,205
Помните, я рассказал вам о другом способе записать это?

59
00:03:17,211 --> 00:03:18,761
Который проще...

60
00:03:18,937 --> 00:03:20,827
Использование квадратных скобок.

61
00:03:20,959 --> 00:03:23,609
Это должно дать мне точный результат.

62
00:03:25,325 --> 00:03:26,335
Смотрите, все ещё "t".

63
00:03:26,790 --> 00:03:30,790
Поэтому, если бы я хотел сдвигаться по моей строке "toto",

64
00:03:30,790 --> 00:03:34,130
последним элементом строки, как мы говорили ранее,

65
00:03:34,130 --> 00:03:38,130
когда я сказал вам выделить 10 элементов в стеке, с массивом,

66
00:03:38,130 --> 00:03:43,610
последним элементом должен быть 9-й элемент. - В точку!

67
00:03:44,247 --> 00:03:48,247
Итак, сколько элементов я выделил для "toto"?! Серьёзно?!

68
00:03:49,154 --> 00:03:51,694
Нет, не 4! Я уверен, что все думали 4.

69
00:03:52,002 --> 00:03:52,752
Нет, - 5!

70
00:03:52,804 --> 00:03:55,474
Я уже говорил вам, что в конце был добавлен "\0".

71
00:03:55,558 --> 00:03:58,028
Так что в действительности у меня есть 5 в стеке.

72
00:03:58,028 --> 00:04:00,348
Но "\0" - это нечто особенное.

73
00:04:00,348 --> 00:04:03,728
Поскольку это позволит нам узнать, когда мы закончили просмотр памяти,

74
00:04:03,728 --> 00:04:06,038
и когда мы закончили чтение строки символов.

75
00:04:06,075 --> 00:04:09,275
Поэтому, когда вы создаёте строки символов вручную, вы должны следить,

76
00:04:09,275 --> 00:04:11,155
чтобы всегда заканчивать свою строку с помощью "\0".

77
00:04:11,207 --> 00:04:14,767
В противном случае все программы, которые могут читать строки символов, будут продолжать чтение,

78
00:04:14,767 --> 00:04:16,827
пока не найдут "\0". И это может привести к краху.

79
00:04:16,827 --> 00:04:17,947
крах ("crashing") = плохо!

80
00:04:18,584 --> 00:04:22,294
Так. "ptr[0]". Если бы я хотел получить доступ к последнему "o",

81
00:04:23,120 --> 00:04:27,120
"ptr[1]" - первое "o", "ptr[2]" - второе "t",

82
00:04:27,654 --> 00:04:29,614
"ptr[3]" - это последнее "o".

83
00:04:30,058 --> 00:04:34,058
Давайте покажем его.

84
00:04:35,121 --> 00:04:35,821
Видите?!

85
00:04:36,553 --> 00:04:38,553
Круто! Я вывел последнее "o" на экран.

86
00:04:38,572 --> 00:04:40,892
Если я попытаюсь отобразить "ptr[4]"

87
00:04:40,892 --> 00:04:43,712
(как я уже сказал, у нас есть 5 элементов в стеке),

88
00:04:43,895 --> 00:04:46,585
Вот что произойдёт.

89
00:04:47,360 --> 00:04:49,830
Он ничего не отображает. Вроде того.

90
00:04:49,879 --> 00:04:53,879
Давайте используем команду "cat".

91
00:04:53,879 --> 00:04:57,879
С опцией "-e", которая отображает непечатаемые символы.

92
00:04:58,194 --> 00:05:02,194
Видите эти символы на экране? Они представляют "\0".

93
00:05:02,885 --> 00:05:04,485
Простая символьная строка.

94
00:05:05,100 --> 00:05:08,550
Так что я успешно показал оцончание строки символов "toto".

95
00:05:08,764 --> 00:05:10,924
Что-то очень важное, что вы должны знать.

96
00:05:10,924 --> 00:05:12,904
Когда вы пишете это,

97
00:05:12,904 --> 00:05:14,744
вас снабжают адресом.

98
00:05:14,744 --> 00:05:18,004
Но "toto" где-то в памяти, где вам не разрешено писать.

99
00:05:18,004 --> 00:05:21,894
Это значит, что если бы я хотел превратить "toto" в "poto"...

100
00:05:22,268 --> 00:05:29,498
Если я напишу это... 
(печатает)

101
00:05:30,249 --> 00:05:35,329
Обычно он должен либо не компилироваться вообще,

102
00:05:35,329 --> 00:05:39,329
или скомпилировать, но дать сбой ...

103
00:05:41,765 --> 00:05:45,765
"Bus error". Я разбился.

104
00:05:45,765 --> 00:05:48,325
Ура! Вообще-то это именно то, что я хотел вам показать.

105
00:05:48,325 --> 00:05:51,535
"toto" здесь находится в области, где нам не разрешают писать.

106
00:05:51,535 --> 00:05:57,135
Единственный способ для меня написать "toto" - объявить массив,

107
00:05:57,135 --> 00:06:02,385
но без установки его размера. Посмотрите, что я набираю.

108
00:06:03,216 --> 00:06:06,316
Как только вы это сделаете, компилятор знает, что вы пытаетесь

109
00:06:06,316 --> 00:06:09,226
для разместить массив, и что вы хотите написать в нём "toto".

110
00:06:09,244 --> 00:06:13,244
Поэтому он выделит 5 элементов, (t, o, t, o, \0),

111
00:06:13,244 --> 00:06:18,384
и поместит эти 5 элементов в стек,

112
00:06:18,384 --> 00:06:21,514
а "ptr" будет указателем на него.

113
00:06:22,281 --> 00:06:24,891
Так, если я делаю то же самое, видите?

114
00:06:25,578 --> 00:06:28,138
Давайте скомпилируем и выполним.

115
00:06:28,560 --> 00:06:32,560
На этот раз это сработало, у меня "p" в качестве первого элемента строки.

116
00:06:36,086 --> 00:06:38,176
Все это кажется забавой пока,

117
00:06:38,340 --> 00:06:42,340
но я хотел показать вам кое-что, чтобы внести ясность.

118
00:06:42,482 --> 00:06:46,482
30 секунд назад у нас был "char *ptr"

119
00:06:48,538 --> 00:06:52,538
а в глубине "ptr = "toto;".

120
00:06:53,763 --> 00:06:57,763
Что произойдет, если я добавлю ещё один "char *".

121
00:06:58,083 --> 00:06:59,623
Назовём его "ptr2",

122
00:07:00,480 --> 00:07:07,520
а затем запишем " ptr2 = "lol"; "

123
00:07:08,530 --> 00:07:13,730
и в свою очередь запишем "ptr = ptr2;"

124
00:07:15,785 --> 00:07:19,785
Что происходит, когда я проверяю "ptr[0]"?

125
00:07:22,955 --> 00:07:24,185
Ну, это просто ...

126
00:07:24,865 --> 00:07:26,995
Если мы будем следовать логике,

127
00:07:26,995 --> 00:07:33,585
"ptr2" принимает адрес «l» из «lol» и «ptr» принимает адрес "t" из "toto".

128
00:07:34,336 --> 00:07:36,556
Теперь. Когда я пишу "ptr = ptr2",

129
00:07:36,556 --> 00:07:40,266
справа у меня есть указатель на char, слева у меня есть указатель на char.

130
00:07:40,272 --> 00:07:41,772
I'm allowed to write this.
Мне разрешено так писать.

131
00:07:41,772 --> 00:07:43,612
Так что же такое "ptr2"? Это всего лишь адрес.

132
00:07:43,612 --> 00:07:45,112
"ptr" также является адресом.

133
00:07:45,180 --> 00:07:47,610
Поэтому я перезаписал адрес, содержащийся в "ptr",

134
00:07:47,610 --> 00:07:49,850
адресом, содержащимся в "ptr2".

135
00:07:49,850 --> 00:07:53,160
Таким образом, результатом будет то, что "ptr" теперь указывает на "l" из "lol".

136
00:07:53,177 --> 00:07:55,567
Так обычно, если я выполняю это ...

137
00:07:56,849 --> 00:07:59,639
Я получаю на экране "l".

138
00:07:59,639 --> 00:08:02,909
В общем-то, это всё, что вам нужно знать о символьных строках.

139
00:08:02,909 --> 00:08:06,289
Просто помни. Символьная строка представляет собой последовательность байтов (или символов),

140
00:08:06,289 --> 00:08:08,779
один за другим, и заканчивается "\0".
