1
00:00:06,823 --> 00:00:08,123
Привет, ещё раз!

2
00:00:08,123 --> 00:00:09,223
Мы собираемся заключить

3
00:00:09,223 --> 00:00:10,343
этот "День указателей"

4
00:00:10,343 --> 00:00:11,943
с использованием указателей.

5
00:00:11,943 --> 00:00:13,323
До сих пор мы

6
00:00:13,323 --> 00:00:14,563
только играли с указателями

7
00:00:14,563 --> 00:00:16,543
в пределах main или функции.

8
00:00:16,543 --> 00:00:18,653
И вы, вероятно, не видите смысла.

9
00:00:18,653 --> 00:00:20,993
Но как только вы узнаете, как выделять память,

10
00:00:21,013 --> 00:00:22,703
вы поймёте их важность.

11
00:00:22,703 --> 00:00:24,233
Поскольку до сих пор,

12
00:00:24,233 --> 00:00:25,773
мы называли вещи в стеке и

13
00:00:25,773 --> 00:00:27,393
каждый раз, когда у нас была переменная "a",

14
00:00:27,393 --> 00:00:29,393
и переменная "b", мы получали их адреса.

15
00:00:29,393 --> 00:00:31,103
Это как-то уныло.

16
00:00:31,103 --> 00:00:32,833
Мы ведь знаем только, где они,

17
00:00:32,833 --> 00:00:35,253
но скоро мы сможем сказать

18
00:00:35,253 --> 00:00:36,943
"Привет, дай мне чутка памяти"

19
00:00:36,943 --> 00:00:39,253
не называя переменные.

20
00:00:39,253 --> 00:00:41,143
Вот тут и появляются указатели.

21
00:00:41,143 --> 00:00:42,673
Простой пример

22
00:00:42,673 --> 00:00:44,243
использования указателя.

23
00:00:44,243 --> 00:00:46,443
Чрезвычайно полезно

24
00:00:46,443 --> 00:00:47,993
для сегодняшнего урока.

25
00:00:49,063 --> 00:00:50,773
У нас есть функция, скорее main,

26
00:00:50,782 --> 00:00:52,952
и функцию fct().

27
00:00:53,394 --> 00:00:55,154
В main я объявил int "a",

28
00:00:55,154 --> 00:00:57,404
со значением "42".

29
00:00:57,404 --> 00:00:59,524
Затем я вызвал свою функцию fct(),

30
00:00:59,524 --> 00:01:01,784
с параметром "a".

31
00:01:02,055 --> 00:01:03,855
Затем я выведу на экран значение "a"

32
00:01:03,855 --> 00:01:05,285
из main.

33
00:01:06,063 --> 00:01:07,933
Затем выведу "\n" и верну 0 (return (0)).

34
00:01:09,802 --> 00:01:11,642
Что будет делать моя функция fct()?

35
00:01:11,642 --> 00:01:13,552
Он принимает int как параметр,

36
00:01:13,552 --> 00:01:15,012
которую мы назвали "а",

37
00:01:15,012 --> 00:01:17,132
и я установил её значение в 12.

38
00:01:17,223 --> 00:01:18,833
Как ты думаешь, что произойдёт,

39
00:01:18,833 --> 00:01:20,383
когда я выполняю эту программу?

40
00:01:20,383 --> 00:01:22,193
Что будет отображаться?

41
00:01:22,193 --> 00:01:22,943
12 или 42?

42
00:01:25,272 --> 00:01:26,212
Давайте проверим.

43
00:01:28,092 --> 00:01:30,232
Вы никогда не сможете сломать машину,

44
00:01:30,232 --> 00:01:31,852
поэтому не стесняйтесь запускать тесты.

45
00:01:32,332 --> 00:01:33,322
42.

46
00:01:33,772 --> 00:01:35,232
Вернёмся к нашему коду.

47
00:01:37,793 --> 00:01:39,593
"а", здесь, это "а" из main.

48
00:01:39,593 --> 00:01:40,423
Её значение равно 42.

49
00:01:41,582 --> 00:01:43,982
Знайте, что, передавая параметр,

50
00:01:44,998 --> 00:01:46,838
мы всегда передаём его "копированием".

51
00:01:47,042 --> 00:01:48,912
В принципе, здесь я не передавал "а",

52
00:01:48,912 --> 00:01:50,952
но копию значения "а".

53
00:01:52,163 --> 00:01:53,383
Итак, "а", которая здесь,

54
00:01:53,383 --> 00:01:56,153
не такая же. Это моя "а" моей функции.

55
00:01:56,153 --> 00:01:57,943
Итак, здесь "a" владеет копией

56
00:01:57,943 --> 00:02:00,033
из первой "а", которая в моей main.

57
00:02:00,533 --> 00:02:03,293
Поэтому она принимает значение "42".

58
00:02:04,513 --> 00:02:07,133
Когда я изменяю её, "a = 12",

59
00:02:07,253 --> 00:02:09,283
Я изменяю "a" из своей функции.

60
00:02:09,283 --> 00:02:11,053
Но "а" из main

61
00:02:11,053 --> 00:02:12,203
не изменилась!

62
00:02:13,403 --> 00:02:14,843
Ещё раз, мы не передавали её,

63
00:02:14,843 --> 00:02:16,033
"а" из main.

64
00:02:16,033 --> 00:02:17,853
Мы передали копию её значения.

65
00:02:17,853 --> 00:02:19,633
Итак, как мы можем управляться с этим всем

66
00:02:19,633 --> 00:02:20,793
в моей функции,

67
00:02:20,793 --> 00:02:23,163
чтобы изменять значение "a" в main?

68
00:02:23,163 --> 00:02:24,873
Ну, вместо копирования

69
00:02:24,873 --> 00:02:26,013
значение "a",

70
00:02:26,013 --> 00:02:27,893
Я собираюсь скопировать адрес "a".

71
00:02:29,403 --> 00:02:31,283
И здесь, вместо того, чтобы иметь int,

72
00:02:31,302 --> 00:02:32,842
в противном случае он не будет компилироваться,

73
00:02:32,842 --> 00:02:34,692
поскольку я передаю адрес int,

74
00:02:34,692 --> 00:02:36,372
потому здесь нам нужно будет превратить

75
00:02:36,372 --> 00:02:38,022
в указатель на int.

76
00:02:38,022 --> 00:02:40,202
Моя "a" становится указателем на int,

77
00:02:40,202 --> 00:02:42,552
и если я хочу изменить значение "a",

78
00:02:42,552 --> 00:02:44,392
то самое указанное значение, 

79
00:02:44,392 --> 00:02:45,712
"а" из моей функции,

80
00:02:45,712 --> 00:02:47,832
Мне придется разыменовывать.

81
00:02:50,423 --> 00:02:51,853
Обычно, если вы смотрели

82
00:02:51,853 --> 00:02:53,063
другие видео,

83
00:02:53,063 --> 00:02:54,433
это понятие должно быть ясным.

84
00:02:55,152 --> 00:02:56,492
Поэтому я вызываю свою функцию,

85
00:02:56,492 --> 00:02:57,942
путём передачи адреса "a",

86
00:02:57,942 --> 00:02:59,892
я сделал копию адреса "a",

87
00:02:59,892 --> 00:03:01,442
который переходит в указатель на int

88
00:03:01,442 --> 00:03:02,862
также называемый "а",

89
00:03:02,862 --> 00:03:04,062
(просто чтобы смутить вас)

90
00:03:04,062 --> 00:03:05,592
потом я решил, что значение

91
00:03:05,592 --> 00:03:06,592
указываемое этой "а",

92
00:03:06,592 --> 00:03:08,492
будет принимать значение 12.

93
00:03:09,003 --> 00:03:10,603
Давай посмотрим что происходит.

94
00:03:15,103 --> 00:03:15,863
Вот так!

95
00:03:15,863 --> 00:03:17,863
Теперь у неё значение 12!

96
00:03:19,843 --> 00:03:21,383
Смысл указателей

97
00:03:21,383 --> 00:03:25,383
заключается в том, чтобы иметь возможность перемещаться по массиву,

98
00:03:26,043 --> 00:03:29,223
либо перемещаться по строке символов,

99
00:03:29,653 --> 00:03:31,723
(который является массивом из "char")

100
00:03:33,223 --> 00:03:38,433
либо передавать адрес переменной

101
00:03:38,433 --> 00:03:40,363
и изменять её внутри функции.

102
00:03:40,502 --> 00:03:44,232
Это одно из наиболее частых применений указателей.

103
00:03:46,703 --> 00:03:50,703
Это завершает наш урок по указателям.

104
00:03:50,703 --> 00:03:52,423
Если эти понятия, всё ещё не укладываются в голове,

105
00:03:52,423 --> 00:03:54,643
не стесняйтесь смотреть эти видео снова.

106
00:03:54,643 --> 00:03:56,523
Но больше попробуйте сами.

107
00:03:56,523 --> 00:03:58,813
Как я уже говорил, вы не можете сломать машину,

108
00:03:58,813 --> 00:04:00,483
читать сообщения об ошибках,

109
00:04:00,483 --> 00:04:02,343
компилятор вам в помощь.

110
00:04:02,343 --> 00:04:03,933
Хорошего дня и удачи.
