1
00:00:06,110 --> 00:00:09,220
Приветствую и приглашаю на первый день Cи : день 02.

2
00:00:09,440 --> 00:00:12,900
Я расскажу вам, как написать свою первую программу на Cи,

3
00:00:12,900 --> 00:00:16,020
и как скомпилировать её так, чтобы её могла исполнить машина.

4
00:00:16,020 --> 00:00:20,550
Сначала давайте откроем файл "jour02.c" с помощью Имакса (Emacs).

5
00:00:20,740 --> 00:00:26,320
Расширение ".c" позволяет нам (и машине) знать, что это исходный файл.

6
00:00:27,750 --> 00:00:31,790
Как только вы откроете (или создадите) file.c с помощью Имакса,

7
00:00:31,860 --> 00:00:38,563
Используйте Ctrl-C и Ctrl-H для создания заголовка школы.

8
00:00:39,073 --> 00:00:41,913
Если вы используете Вим (vim), вам придётся использовать Fn-F1.

9
00:00:43,190 --> 00:00:48,180
Начнём с объявления точки входа нашей программы с помощью функции main().

10
00:00:48,230 --> 00:00:53,863
В Cи все функции имеют тип (int, char и т. д.).

11
00:00:53,863 --> 00:00:56,863
Они возвращаются значение этого типа всякий раз, когда они используются.

12
00:00:56,863 --> 00:01:01,533
Итак, здесь мы создадим функцию main(), которая возвращает int.

13
00:01:01,533 --> 00:01:07,562
Если ваша функция ничего не возвращает, вам нужно будет написать "void" (= null).

14
00:01:07,562 --> 00:01:11,692
Отсутствие переменных означает что нечего возвращать.

15
00:01:11,692 --> 00:01:16,649
As our function main() returns an int, let's write the return right now.
Поскольку наша функция main() возвращает int, давайте напишем возврат (return) прямо сейчас.

16
00:01:16,669 --> 00:01:21,029
Предполагая, что в нашем коде нет ошибки, мы будем использовать код возврата по умолчанию:

17
00:01:21,199 --> 00:01:26,107
return(0). Вовзращённый "0" показывает, что всё прошло хорошо.

18
00:01:26,787 --> 00:01:32,267
Обычно main() принимает аргументы, но для вашей первой программы мы не будем это включать.

19
00:01:32,657 --> 00:01:36,547
Продолжаем. Мы создали функцию, которая ничего не делает, но возвращает 0.

20
00:01:36,917 --> 00:01:38,957
Просто сообщает "всё пошло нормально".

21
00:01:39,047 --> 00:01:41,727
Сохраним наш файл с помощью Ctrl-X Ctrl-S.

22
00:01:41,847 --> 00:01:44,542
С Ctrl-Z, Имакс будет работать в фоновом режиме.

23
00:01:44,542 --> 00:01:47,542
В командной оболочке можно увидеть, что задача приостановлена.

24
00:01:47,542 --> 00:01:52,542
Теперь давайте скомпилируем наш файл с помощью gcc, который является компилятором.

25
00:01:53,132 --> 00:01:55,763
gcc имеет несколько опций,

26
00:01:55,763 --> 00:02:02,363
например -o, который позволяет вам определить тип выходного (output) файла gcc,

27
00:02:02,363 --> 00:02:05,093
т.е. имя исполняемого файла, который мы создали.

28
00:02:05,173 --> 00:02:13,027
Итак, давайте создадим исполняемый файл под названием "jour02", используя исходный файл "jour02.c".

29
00:02:13,087 --> 00:02:23,347
Будьте осторожны, чтобы не перемешивать их, иначе вы перезапишете "jour02.c"

30
00:02:23,487 --> 00:02:28,927
Продолжаем! gcc создал наш файл.

31
00:02:29,897 --> 00:02:33,877
Смотрите в нашем каталоге, у нас есть 2 файла: "jour02" и "jour02.c".

32
00:02:34,723 --> 00:02:40,561
Теперь у нас есть исполняемый файл (см. права доступа к файлам).

33
00:02:40,681 --> 00:02:45,601
Чтобы убедиться, что мы делаем это в текущем каталоге, мы будем использовать "./"

34
00:02:45,601 --> 00:02:47,220
перед именем нашего исполняемого файла.

35
00:02:48,199 --> 00:02:53,089
Запускаем нашу программу, но поскольку она ничего не делает, то и на выходе ничего нет.

36
00:02:54,099 --> 00:02:56,295
Поэтому давайте сделаем кое-что.

37
00:02:57,475 --> 00:03:01,085
С "fg" (foreground) мы снова открываем Имакс.

38
00:03:03,365 --> 00:03:07,357
Давайте используем базовый системный вызов: write().

39
00:03:07,697 --> 00:03:12,057
Итак, если вы припоминаете (или нет), мы будем использовать write() для стандартного вывода,

40
00:03:12,057 --> 00:03:15,057
который является файловым дескриптором (1) [File Descriptor (1)]

41
00:03:15,057 --> 00:03:18,520
Мы просто отобразим один символ, например "@",

42
00:03:19,360 --> 00:03:25,355
и определим, сколько символов мы хотим отобразить из этой строки.

43
00:03:25,905 --> 00:03:27,865
Ясно, что тут только один.

44
00:03:28,735 --> 00:03:35,412
Давайте быстро проверим руководство по write(), мы можем сделать это просто, выполнив Meta-X man ...

45
00:03:35,812 --> 00:03:42,121
... посмотрим на man 2 write(). write() - системный вызов.

46
00:03:42,121 --> 00:03:45,121
Руководство индексируются по типу, и man 2 про системные вызовы.

47
00:03:45,121 --> 00:03:48,341
Так что мы хотим набрать "man 2 write".

48
00:03:49,901 --> 00:03:55,944
Он разбивает наше окно на два. Чтобы переключить окна, просто сделайте Ctrl-X-O.

49
00:03:57,240 --> 00:04:05,560
Как вы можете видеть, write() требует заголовок "#include <unistd.h>",

50
00:04:05,730 --> 00:04:14,796
по кторому компилятор получает объявление и понимает, какие аргументы необходимы

51
00:04:15,576 --> 00:04:22,343
и каков выходной параметр.

52
00:04:22,343 --> 00:04:25,223
Итак, давайте добавим этот заголовок.

53
00:04:25,953 --> 00:04:29,073
По-прежнему Ctrl-X-O для переключения окон.

54
00:04:29,703 --> 00:04:34,417
Мы видим, что write() требует файловый дескриптор,

55
00:04:34,417 --> 00:04:37,937
- (1), который представляет собой стандартный вывод нашей программы -

56
00:04:37,937 --> 00:04:42,397
буфер - который есть строка. В нашем случае просто "@",

57
00:04:42,794 --> 00:04:47,724
и размер - количество байт, которое будет отображено.

58
00:04:49,184 --> 00:04:55,166
Сохраните изменения (Ctrl-X, Ctrl-S), приостановите Имакс (Ctrl-Z).

59
00:04:55,626 --> 00:04:58,686
Перекомпилируем.

60
00:05:00,446 --> 00:05:01,956
Всё прошло хорошо.

61
00:05:02,416 --> 00:05:10,146
Запустите свою программу. На экране отображается "@".

62
00:05:10,576 --> 00:05:14,166
Почему в конце знак "%"?

63
00:05:18,090 --> 00:05:20,680
Потому что в нашей программе нет возврата каретки.

64
00:05:20,680 --> 00:05:25,090
Итак, добавим один ("\n") и изменим размер нашей строки на 2 символа.

65
00:05:28,710 --> 00:05:31,330
Повторная компиляция, повторный запуск ...

66
00:05:31,640 --> 00:05:33,640
Так-то лучше!

67
00:05:33,740 --> 00:05:39,350
Теперь, когда мы создали нашу первую функцию, поместим её в подфункцию,

68
00:05:40,480 --> 00:05:45,013
которую мы будем называть ft_putchar(),

69
00:05:46,663 --> 00:05:50,033
которая также возвращает int. (Прим. переводчика: в дальнейшем в задачах и на экзамене подразумевается "void ft_putchar", имейте это ввиду).

70
00:05:52,683 --> 00:06:04,563
Итак, ft_putchar() принимает "char c", и мы просто берём write()

71
00:06:04,623 --> 00:06:09,165
от main() и дивгаем её вверх.

72
00:06:09,255 --> 00:06:12,945
Вырежьте строку (линию) с помощью Ctrl-K. Сделайте это дважды, чтобы ещё и вернуть каретку.

73
00:06:12,945 --> 00:06:14,725
Вставить с помощью Ctrl-Y.

74
00:06:14,785 --> 00:06:22,398
и в нашей подфункции мы сможем написать символ ...

75
00:06:23,278 --> 00:06:27,632
... Это немного сложно, ...

76
00:06:27,632 --> 00:06:30,202
с амперсандом "&" мы указываем адрес символа,

77
00:06:30,202 --> 00:06:32,012
вместо самого символа,

78
00:06:32,012 --> 00:06:38,062
который позволяет нам преобразовать его в строку (char *)

79
00:06:42,422 --> 00:06:45,542
Здесь мы вводим return(0), что означает, что всё прошло хорошо,

80
00:06:45,602 --> 00:06:52,892
и теперь заменим тип функции на void (ничего не возвращает). Давайте используем return(0).

81
00:06:53,783 --> 00:06:58,163
Мы будем использовать нашу функцию ft_putchar().

82
00:06:58,533 --> 00:07:06,784
И на этот раз мы будем использовать простые кавычки, потому что это символ, а не строка.

83
00:07:07,514 --> 00:07:13,224
Мы сделаем второй раз для "\n".

84
00:07:20,589 --> 00:07:24,259
Давайте закроем окно руковдства с помощью Ctrl-X-1.

85
00:07:24,439 --> 00:07:29,005
Как видите, наша программа начинает исполнение с main().

86
00:07:29,325 --> 00:07:34,305
main() вызывает подфункцию ft_putchar().

87
00:07:34,565 --> 00:07:39,645
ft_putchar () отображает то, что мы помещаем в параметр "char c".

88
00:07:41,025 --> 00:07:44,915
Происходит возврат, затем мы вернемся к точке исполнения в конце этой функции.

89
00:07:44,915 --> 00:07:46,785
Продолжаем.

90
00:07:49,265 --> 00:07:55,157
И затем уже мы заканчиваем с ft_putchar() символа новой строки ("\n").

91
00:07:55,217 --> 00:08:00,007
В этом случае write(1 ...), "char c" станет "\n",

92
00:08:00,007 --> 00:08:02,717
это один символ, так что 1. Возвращение... - и всё готово.

93
00:08:03,781 --> 00:08:07,191
Давайте проверим это. Ctrl-X Ctrl-S сохранит нашу программу.

94
00:08:09,241 --> 00:08:11,631
Перекомпиляция.

95
00:08:12,001 --> 00:08:13,761
Запуск.

96
00:08:14,855 --> 00:08:16,875
Он сделал то, что требовалось.

97
00:08:17,635 --> 00:08:23,465
Now. Let's try something a little more complex.
Теперь. Попробуем что-то более сложное.

98
00:08:23,525 --> 00:08:30,694
Let's create a function that displays N-times the character passed as argument.
Давайте создадим функцию, которая отображает N-раз символ, переданный как аргумент.

99
00:08:33,683 --> 00:08:36,494
Let's call it ft_nputchar().
Назовем его ft_nputchar ().

100
00:08:40,655 --> 00:08:45,522
So we need the character we want to be displayed,
Поэтому нам нужен персонаж

101
00:08:45,522 --> 00:08:51,442
and an int(n) for the number of times we want that character displayed.
и int (n) для количества раз, когда мы хотим, чтобы этот символ отображался.

102
00:08:51,442 --> 00:08:57,422
Here, we'll simply use this int(n) to count.
Здесь мы будем использовать этот int (n) для подсчета.

103
00:08:57,532 --> 00:09:02,658
We could modify it the hard way, but let's try and keep it simple for now.
Мы могли бы изменить его с трудом, но давайте попробуем, пока все будет просто.

104
00:09:02,768 --> 00:09:06,838
We need a counter "i", which will start from 0.
Нам нужен счетчик «i», который начнется с 0.

105
00:09:06,898 --> 00:09:13,486
And we're going to add a loop with while() - while (i) is smaller than (n) ...
И мы добавим цикл while () - while (i) меньше (n) ...

106
00:09:13,638 --> 00:09:17,518
while (i < n) { ... } ,
while (i <n) {...},

107
00:09:17,726 --> 00:09:22,921
we'll display the character -
мы отобразим персонажа -

108
00:09:26,061 --> 00:09:28,961
by calling our ft_putchar() function
путем вызова нашей функции ft_putchar ()

109
00:09:30,921 --> 00:09:34,722
and as long as it's lower than (n), we'll increase (i)
и пока оно меньше (n), мы увеличим (i)

110
00:09:35,522 --> 00:09:37,322
i = i + 1;
i = i + 1;

111
00:09:37,442 --> 00:09:42,002
and once (i) is equal to (n), it'll stop.
и один раз (i) равен (n), он остановится.

112
00:09:42,072 --> 00:09:47,750
So if we say that the argument (n) is equal to (1),
Итак, если мы скажем, что аргумент (n) равен (1),

113
00:09:47,820 --> 00:09:50,610
we start with (i), which equals to (0), therefore smaller than (1),
мы начинаем с (i), что равно (0), следовательно, меньше (1),

114
00:09:50,610 --> 00:09:53,610
starting our first loop.
начиная наш первый цикл.

115
00:09:53,610 --> 00:09:56,840
we increase (i) by (1). So (i) goes from (0) to (1).
мы увеличиваем (i) на (1). Итак, (i) идет от (0) до (1).

116
00:09:56,920 --> 00:10:04,661
The loop starts over again. As (i) isn't lower than (1), the expression is wrong,
Цикл начинается снова. Поскольку (i) не ниже (1), выражение неверно,

117
00:10:04,721 --> 00:10:09,542
so we exit our loop while() and return (0)
поэтому мы выходим из нашего цикла while () и возвращаем (0)

118
00:10:12,172 --> 00:10:21,208
So we'll try the same thing... Here we'll call ft_nputchar(), and ask it to display
Итак, мы попробуем то же самое ... Здесь мы будем называть ft_nputchar () и попросить его отобразить

119
00:10:21,718 --> 00:10:24,668
42 times the character "@" followed by a line-break.
42 раза символ «@», за которым следует разрыв строки.

120
00:10:25,868 --> 00:10:28,352
Ctrl-Z, emacs runs in the background.
Ctrl-Z, emacs работает в фоновом режиме.

121
00:10:28,532 --> 00:10:32,592
Re-compiling
Re-компиляции

122
00:10:33,092 --> 00:10:34,782
Launching.
Запуск.

123
00:10:34,852 --> 00:10:37,512
Okay. Let's check.
Хорошо. Давайте проверим.

124
00:10:39,487 --> 00:10:43,381
Normally we should have 43 characters, because the "\n" counts as a character too
Обычно мы должны иметь 43 символа, потому что «\ n» также считается символом

125
00:10:43,381 --> 00:10:45,821
Here we go. We have 43 characters!
Здесь мы идем. У нас есть 43 персонажа!

126
00:10:46,641 --> 00:10:52,930
With these simple examples, you should be able to write your own programs in C
С помощью этих простых примеров вы должны иметь возможность писать свои собственные программы на C

127
00:10:53,020 --> 00:10:55,160
Up to you to do the rest !
До вас до конца!

128
00:10:55,300 --> 00:10:56,790
Cheers!
Ура!
