1
00:00:06,748 --> 00:00:09,198
Рекурсия - это метод программирования,

2
00:00:09,198 --> 00:00:13,078
который полностью отличается от того, что вы видели до сих пор.

3
00:00:13,078 --> 00:00:15,128
То, что вы узнавали до сих пор, - это то, что мы называем

4
00:00:15,128 --> 00:00:16,504
итеративное программирование.

5
00:00:16,504 --> 00:00:18,774
Итеративное программирование - это подход в программировании

6
00:00:18,774 --> 00:00:22,224
при котором используют циклы выражений, которые повторяют сами себя,

7
00:00:22,224 --> 00:00:24,354
но ничего не вычисляют.

8
00:00:24,354 --> 00:00:26,374
Для этого используется то, что мы бы назвали побочными эффектами.

9
00:00:26,374 --> 00:00:28,234
Они служат для возврата значений.

10
00:00:28,234 --> 00:00:30,184
Это означает, что они используют переменные.

11
00:00:30,184 --> 00:00:32,964
Давайте используем вашу ft_strlen() в качестве примера.

12
00:00:32,964 --> 00:00:35,224
(Надеюсь, вы её сделали!)

13
00:00:35,224 --> 00:00:38,744
Она принимает переменную, приавнивает её 0,

14
00:00:38,744 --> 00:00:41,714
и начинает цикл, который на каждом повторе операции (на каждой итерации),

15
00:00:41,714 --> 00:00:44,084
(обратите внимание на итерацию: итеративное программирование и т.п.)

16
увеличит вашу переменную на 1.

17
00:00:48,084 --> 00:00:50,703
Таким образом, он использует внешнюю переменную

18
00:00:50,703 --> 00:00:52,813
чтобы вернуть её результат.

19
00:00:52,813 --> 00:00:55,753
Её результат - он в действительности не возвращает единицу -

20
00:00:55,753 --> 00:00:57,893
её результат хранится в переменной.

21
00:00:57,893 --> 00:01:00,753
Итеративное программирование именно такое.

22
00:01:00,753 --> 00:01:03,053
ft_strlen() является каноническим примером.

23
00:01:03,053 --> 00:01:07,913
Рекурсивное программирование немного отличается.

24
00:01:07,913 --> 00:01:11,243
Вы должны представить его так же, как матрёшки.

25
00:01:11,243 --> 00:01:13,573
У нас будут функции, вызывающие сами себя, а затем

26
00:01:13,573 --> 00:01:16,103
снова называют вызываюзие себя, и опять,

27
00:01:16,103 --> 00:01:17,683
и снова, и снова и т. д.

28
00:01:17,683 --> 00:01:19,153
До определённой точки,

29
00:01:19,153 --> 00:01:23,153
в которой  мы будем использовать механизм возврата (return) результатов.

30
00:01:23,803 --> 00:01:26,873
Чтобы понять это, вы должны сначала понять

31
00:01:26,873 --> 00:01:28,183
принципы стопки.

32
00:01:28,183 --> 00:01:30,553
А под стопкой я понимаю стек (stack).

33
00:01:30,553 --> 00:01:33,173
Это зарезервированная область памяти программы

34
00:01:33,173 --> 00:01:36,833
которая будет заполняться по мере вызова функций.

35
00:01:36,833 --> 00:01:38,553
Она ведь довольно пуста

36
00:01:38,553 --> 00:01:40,313
в начале программы.

37
00:01:40,313 --> 00:01:41,703
For example,
Например,

38
00:01:41,703 --> 00:01:44,783
давайте используем простую программу.

39
00:01:44,783 --> 00:01:46,743
В самом начале стек пуст.

40
00:01:47,123 --> 00:01:50,193
Когда мы запускаем программу, идёт вызов main,

41
00:01:50,193 --> 00:01:53,203
поэтому функция "main" будет добавлнена в стек.

42
00:01:53,203 --> 00:01:55,923
Мы могли бы также сказать, она вытолкнута (pushed) в стек.

43
00:01:56,403 --> 00:01:58,453
И затем, где-то в вашем коде,

44
00:01:58,453 --> 00:02:02,003
main вызовет ваш ft_putstr().

45
00:02:02,003 --> 00:02:06,683
Мы вызываем ft_putstr(), который также будет добавлен в стек.

46
00:02:06,683 --> 00:02:09,983
И где-то в коде ft_putstr()

47
00:02:09,983 --> 00:02:14,373
ft_putchar() также будет вызывана и, следовательно, будет также добавлена в стек.

48
00:02:14,373 --> 00:02:18,003
ft_putchar() затем вызовет "write", который также будет добавлен в стек,

49
00:02:18,003 --> 00:02:18,703
и т.д. и т.п.

50
00:02:18,703 --> 00:02:22,453
В принципе, каждый раз, когда мы вызываем функцию,

51
00:02:22,453 --> 00:02:26,483
эта функция будет помещена в стек, она будет вычислят саму себя,

52
00:02:26,483 --> 00:02:30,233
и в какой-то момент, когда мы закончили с нашей функцией,

53
00:02:30,233 --> 00:02:32,953
мы вернёмся к нашей предыдущей функции.

54
00:02:35,033 --> 00:02:37,503
Наша функция, которая была поверх стека,

55
00:02:37,503 --> 00:02:41,533
будут удалены из стека, мы также можем сказать, что он выскочила (popped from) из стека.

56
00:02:41,533 --> 00:02:47,843
Так наша функция исчезнет и будет заменена предыдущей.

57
00:02:47,843 --> 00:02:51,313
В нашем примере мы удалим "write", а ft_putchar() останется.

58
00:02:51,313 --> 00:02:53,803
И выполнение перейдёт к ft_putchar().

59
00:02:53,803 --> 00:02:57,733
Мы продолжим движение и удалим ft_putchar() и вернёмся к ft_putstr().

60
00:02:57,733 --> 00:03:00,333
Затем вернёмся к main и т. д.

61
00:03:00,333 --> 00:03:03,362
Как я уже говорил, это похоже на матрёшки.

62
00:03:03,362 --> 00:03:06,282
Функции скапливаются друг над другом,

63
00:03:06,282 --> 00:03:09,853
или внутри друг друга,

64
00:03:09,853 --> 00:03:13,023
Это и есть принцип, который мы будем использовать для рекурсивных функций.

65
00:03:13,023 --> 00:03:17,713
Рекурсивная функция - это функция, которая вызывает себя

66
00:03:17,923 --> 00:03:20,513
и толкает себя в стек, поверх себя же.

67
00:03:20,513 --> 00:03:22,443
В принципе, это не так сложно.

68
00:03:22,443 --> 00:03:24,823
Однако мы будем делать это до тех пор, пока

69
00:03:24,823 --> 00:03:26,373
мы не достигаем двух возможных результатов:

70
00:03:26,393 --> 00:03:28,723
либо у вас есть функция, с которой постоянно всё в порядке:

71
00:03:28,723 --> 00:03:30,363
просто вызывая себя, и в этом случае

72
00:03:30,363 --> 00:03:33,463
каждый раз, когда она завершает своё исполнение, мы повторно выталкиваем ещё один экземпляр

73
00:03:33,463 --> 00:03:34,993
нашей функции в стек.

74
00:03:34,993 --> 00:03:37,083
И, как вы можете себе представить, если мы не остановим процесс,

75
00:03:37,083 --> 00:03:40,273
стек будет расти и расти,

76
00:03:40,273 --> 00:03:41,863
till it goes "ka-boom!"
пока не наступит "ба-бах!"

77
00:03:41,863 --> 00:03:45,003
Программа выйдет из строя, потому что ваша система сообщит ей об этом,

78
00:03:45,003 --> 00:03:48,623
что она превысила ёмкость стека (ту, которая ей выделена).

79
00:03:48,623 --> 00:03:51,713
Как вы можете себе представить, это была не такая блестящая идея.

80
00:03:51,713 --> 00:03:54,863
Второй возможный выход в такой ситуации

81
00:03:54,863 --> 00:03:56,713
и вот в чём он как правило заключается.

82
00:03:56,713 --> 00:03:58,493
Когда мы правильно используем рекурсию,

83
00:03:58,493 --> 00:04:01,463
чтобы добраться до такой точки нашего исполнения,

84
00:04:01,463 --> 00:04:03,193
в которой выполняется условие остановки.

85
00:04:03,193 --> 00:04:05,653
Оно сообщает в каком-то месте нашей функции,

86
00:04:05,653 --> 00:04:09,493
назовем её fn() (это функция, которая вызывает себя),

87
00:04:09,493 --> 00:04:13,843
что существует условие, которое гласит, что если критерии удовлетворяются,

88
00:04:13,843 --> 00:04:16,863
то мы можем перестать вызывать (calling), а вместо этого вернуть (return).

89
00:04:16,863 --> 00:04:18,533
Ну это будто вы сказали:

90
00:04:18,533 --> 00:04:21,183
"Достаточно, я останавливаюсь. Я не собираюсь продолжать дальше

91
00:04:21,183 --> 00:04:23,913
использовать рекурсию, иначе стек сломается полетит".

92
00:04:23,913 --> 00:04:27,212
Это тот же принцип, что и условие остановки в цикле.

93
00:04:27,212 --> 00:04:29,212
На самом деле, это точно такой же принцип.

94
00:04:29,212 --> 00:04:31,422
За исключением того, что они осуществляются по-разному.

95
00:04:31,422 --> 00:04:33,352
Итаке, когда условие остановки достигнуто,

96
00:04:33,352 --> 00:04:35,512
мы прекращаем отправку функций в стек.

97
00:04:35,512 --> 00:04:36,802
Начинаем их оттуда извлекать.

98
00:04:36,802 --> 00:04:41,142
Пока не спустимся вниз и не будет достигнуто исходное состояние.

99
00:04:41,982 --> 00:04:46,342
Теперь давайте рассмотрим небольшой математический пример (на Вим).

100
00:04:46,342 --> 00:04:49,302
Я знаю: тут никто не поклонник математики,

101
00:04:49,302 --> 00:04:52,552
но это настолько подходящий пример.

102
00:04:52,552 --> 00:04:54,292
Давайте поговорим о факториальных функциях.

103
00:04:54,292 --> 00:04:56,642
Для тех из вас, кто не занимался математикой, сообщу,

104
00:04:56,642 --> 00:04:58,862
или для тех у кого избирательная память, напомню.

105
00:04:58,862 --> 00:05:02,452
Функция факториала может быть записана следующим образом:

106
00:05:02,452 --> 00:05:07,322
Факториал 5: 5 x 4 x 3 x 2 x 1. (x = умножение)

107
00:05:08,903 --> 00:05:13,428
То же самое касается 6: 6 x 5 x 4 x 3 x 2 x 1.

108
00:05:13,428 --> 00:05:15,388
Я уверен, что вы поняли.

109
00:05:16,558 --> 00:05:18,848
Покажу ещё пару факториалов.

110
00:05:18,848 --> 00:05:25,558
Факторил 4: 4 x 3 x 2 x 1.

111
00:05:25,752 --> 00:05:28,792
Факторил 3: 3 x 2 x 1.

112
00:05:28,792 --> 00:05:32,339
Что-то приходит на ум, не так ли.

113
00:05:32,339 --> 00:05:38,649
Мы можем сказать, что факториал 5 похож на 5 x 4!

114
00:05:40,892 --> 00:05:46,062
А факториал 4 совпадает с 3! умноженный на 4.

115
00:05:46,803 --> 00:05:51,173
Я мог бы продолжать так вечно. Либо до достижения факториала 1.

116
00:05:51,552 --> 00:05:54,352
Простой факт: факторный 1 равен 1.

117
00:06:03,802 --> 00:06:09,372
Обратите внимание на сходство с рекурсией?

118
00:06:09,372 --> 00:06:12,242
Мы видим, что 5! = 5 х 4 !,

119
00:06:12,242 --> 00:06:15,122
4! = 4 x 3!,

120
00:06:15,122 --> 00:06:17,802
Так постоянно до 1! = 1,

121
00:06:17,802 --> 00:06:20,392
который является своего рода условием остановки.

122
00:06:20,392 --> 00:06:25,222
На случай если недостаточно ясно,

123
00:06:25,222 --> 00:06:31,842
скажем, что при n > 0,

124
00:06:32,593 --> 00:06:42,783
п! = n x (n - 1) x (n - 2) x и т.д.

125
00:06:45,101 --> 00:06:48,141
пока 3 х 2 х 1.

126
00:06:48,834 --> 00:06:51,274
Основываясь на этом примере, можно сказать, что:

127
00:06:51,274 --> 00:06:57,454
факториал n = n x факториал (n - 1).

128
00:06:57,454 --> 00:06:59,974
Проще простого правда?

129
00:06:59,974 --> 00:07:12,692
Таким образом, факториал(n - 1) равен (n - 1) х факториал(n - 2).

130
00:07:13,032 --> 00:07:14,332
И т.д. и т.п.

131
00:07:14,332 --> 00:07:18,332
Пока мы не достигнем 1, который завершит нашу рекурсию.

132
00:07:18,332 --> 00:07:20,942
Это была форма рекурсии.

133
00:07:20,942 --> 00:07:22,782
Написано математически, конечно, но всё же.

134
00:07:23,662 --> 00:07:26,332
Я собираюсь показать вам рекурсию в коде. Хотя и не в Cи.

135
00:07:26,332 --> 00:07:29,973
А то было бы слишком легко. В общем в псевдокоде ;)

136
00:07:31,403 --> 00:07:40,093
Можно написать, что fact(n) равна N x fact(n - 1).

137
00:07:41,976 --> 00:07:45,846
Поскольку это рекурсивная функция, ей требуется задать условие остановки.

138
00:07:45,853 --> 00:07:49,353
Мы помним, что факториал для 1 равен 1.

139
00:07:50,193 --> 00:07:52,993
Из этого примера вам следует извлечь знания как построить рекурсию,

140
00:07:52,993 --> 00:07:55,443
с условием остановки, которое будет выполнено,

141
00:07:55,443 --> 00:07:57,753
избегая взрыва программы.

142
00:07:57,753 --> 00:07:59,823
По крайней мере, я надеюсь ...

143
00:07:59,823 --> 00:08:05,953
Кстати, чтобы вычислить факторный N, нам нужно вычислить факториал от (N - 1) и т. д.

144
00:08:08,492 --> 00:08:12,252
Это немного напоминает цикл. И он может быть написан именно так.

145
00:08:12,252 --> 00:08:14,822
Да что я, вам всё равно придётся это сделать.

146
00:08:14,822 --> 00:08:17,662
Давайте теперь остановимся сейчас. Увидимся в следующем видео,

147
00:08:17,662 --> 00:08:19,982
с большим числом примеров настоящего кода в Си.
