1
00:00:05,849 --> 00:00:09,774
Теперь давайте посмотрим, как мы можем объединить эти команды вместе.

2
00:00:10,421 --> 00:00:13,831
Для этого нам нужно будет изучить пару новых подходов.

3
00:00:13,831 --> 00:00:18,071
До сих пор мы знали, как отображать содержимое файлов и как фильтровать их выводы.

4
00:00:18,144 --> 00:00:22,144
Мы знаем, как делать одну команду за раз.

5
00:00:22,699 --> 00:00:27,909
Это видео расскажет вам, как объединить несколько команд: "связки команд" ("chain commands").

6
00:00:29,724 --> 00:00:33,724
Вероятно, вы заметили, что все отображается на стандартный выход (standard output).

7
00:00:33,880 --> 00:00:37,880
Т.е. отображается на экране.

8
00:00:39,099 --> 00:00:43,099
Давайте использовать один из наших предыдущих примеров.

9
00:00:43,189 --> 00:00:47,189
Если мы сделаем "cat" на наш файл, его содержимое будет отображаться на нашем экране.

10
00:00:48,045 --> 00:00:52,045
Но есть другое обращение с этими командами.

11
00:00:52,045 --> 00:00:54,555
Обращение "без файла" ("no file").

12
00:00:55,246 --> 00:00:59,246
Попытка вызова "cat" самой по себе, нет выдаёт сообщения об ошибке.

13
00:00:59,246 --> 00:01:02,256
Она ждёт ваших указаний.

14
00:01:03,288 --> 00:01:07,288
От вас ждутт, когда вы наберёте какую-то замену отсутствующему файлу.

15
00:01:07,728 --> 00:01:11,728
Поэтому, если я наберу "Привет", как только я нажму кнопку ввод, он отобразит "Привет".

16
00:01:12,472 --> 00:01:16,472
В принципе, всё, что он читает на стандартном входе (standard input)

17
00:01:16,472 --> 00:01:20,472
будет повторно отображаться на стандартном выходе - что то же - на экране.

18
00:01:20,607 --> 00:01:23,507
Введите "ctrl + d", чтобы выйти из этого режима.

19
00:01:26,055 --> 00:01:28,975
Пока это не всё, что интересно.

20
00:01:29,126 --> 00:01:32,486
Но скоро мы увидим, как перенаправить эти стандартные входы и выходы,

21
00:01:32,486 --> 00:01:36,166
что позволит вам связывать команды.

22
00:01:36,472 --> 00:01:40,472
Используем предыдущий пример: echo "Hello".

23
00:01:40,472 --> 00:01:44,472
Будет отображено "Hello" на экране.

24
00:01:44,472 --> 00:01:48,472
Если я хочу отобразить его в файл вместо этого,

25
00:01:48,472 --> 00:01:52,472
мне придётся перенаправить стандартный вывод в файл.

26
00:01:52,472 --> 00:01:56,472
Чтобы перенаправить стандартный вывод в файл, нам нужно использовать символ ">".

27
00:01:56,472 --> 00:02:01,392
">" означает "вместо отображения на экране, отображать в конкретный файл".

28
00:02:01,392 --> 00:02:04,652
Этот файл должен быть указан после символа ">".

29
00:02:04,778 --> 00:02:07,328
Так что если я делаю "echo "Hello" > output",

30
00:02:07,360 --> 00:02:09,850
ничего не будет на экране.

31
00:02:10,169 --> 00:02:14,169
Однако вы заметите, что был создан "выходной" файл.

32
00:02:14,202 --> 00:02:17,582
И если мы сделаем "cat" на  него, на экране появится "Hello".

33
00:02:17,638 --> 00:02:20,088
Поэтому наше перенаправление было успешным!

34
00:02:20,140 --> 00:02:24,140
Однако, если я попробую во второй раз, в третий, в четвёртый,

35
00:02:24,140 --> 00:02:27,700
а затем снова выполните "cat", в моём «выходном» файле все ещё есть "Hello" и только один...

36
00:02:27,772 --> 00:02:28,502
Почему?

37
00:02:28,502 --> 00:02:31,572
Поскольку каждый раз, когда мы перенаправляем одно и то же с одним ">",

38
00:02:31,587 --> 00:02:35,587
он удаляет содержимое выбранного файла и заменяет его более новым.

39
00:02:36,402 --> 00:02:40,402
Если бы мы хотели добавить вещи в наш файл, вместо того, чтобы их заменять

40
00:02:40,417 --> 00:02:44,987
нам нужно будет использовать ">>", что добавит содержимое в новую строку.

41
00:02:52,795 --> 00:02:56,795
Попробуйте: echo "Hello2" >> output.

42
00:02:56,795 --> 00:03:00,795
См., первая строка = Hello, Вторая строка = Hello2.

43
00:03:02,919 --> 00:03:06,919
Таким образом, это были выходные (output) перенаправления (redirections),

44
00:03:08,158 --> 00:03:12,158
Теперь давайте посмотрим на входные (input) перенаправления (redirections).

45
00:03:12,158 --> 00:03:17,168
По умолчанию стандартный вход получает своё содержимое с клавиатуры,

46
00:03:17,168 --> 00:03:21,168
но, как и стандартный вывод, он может быть перенаправлен.

47
00:03:24,387 --> 00:03:28,387
Чтобы перенаправить стандартный ввод из файла, используется символ "<".

48
00:03:28,391 --> 00:03:32,391
Синтаксис "cat < file.txt" похож на "cat file.txt".

49
00:03:32,391 --> 00:03:36,391
Единственное, что он изменилось - теперь это процесс, который невидим.

50
00:03:36,391 --> 00:03:40,391
С "cat file.txt" откроется файл.

51
00:03:40,391 --> 00:03:44,391
С помощью "cat < file.txt" он будет продолжать чтение на стандартном входе.

52
00:03:44,391 --> 00:03:47,091
Кстати мы обманули её, заставив полагать, что "file.txt" является стандартным входом.

53
00:03:47,415 --> 00:03:51,415
Что ещё вы можете сделать с перенаправлением?

54
00:03:51,415 --> 00:03:55,415
Ну вместо отображения на стандартном выходе,

55
00:03:55,415 --> 00:03:58,645
вы сможете перенаправить его на что-то ещё.

56
00:03:58,645 --> 00:04:02,645
Пример: перенаправить вывод команды "cat" на вход других команд.

57
00:04:02,807 --> 00:04:06,807
В этом случае появляется символ " | ". Также известен как вертикальная черта (Vertical bar) или конвейер (pipe, в России принято именно это название "конвейер", примечание переводчика).

58
00:04:06,807 --> 00:04:10,807
Итак, если мы это сделаем: "cat file.txt | grep "Mathieu"",

59
00:04:10,807 --> 00:04:14,167
будут отображены только строки с "Mathieu".

60
00:04:14,300 --> 00:04:15,870
А что случилось?

61
00:04:15,910 --> 00:04:19,910
Вместо того, чтобы писать в стандартны выход, cat будет писать в конвейере,

62
00:04:19,961 --> 00:04:23,961
и grep будет читать с конвейера вместо стандартного входа.

63
00:04:24,250 --> 00:04:28,250
Так что cat писал непосредственно в стандартный вход grep,

64
00:04:29,650 --> 00:04:35,040
поэтому grep вместо того, чтобы получать из файла, будет получать из результатов cat.

65
00:04:36,818 --> 00:04:40,818
Вы можете подключить столько конвейреов, сколько хотите.

66
00:04:42,457 --> 00:04:46,457
Поэтому, если вы хотите прочитать только одну строку, все, что вам нужно сделать -- это (см. на экране).

67
00:04:46,947 --> 00:04:50,947
Таким образом, стандартный выход grep (что мы получали здесь)

68
00:04:50,947 --> 00:04:54,947
проходит через "l", который выберет первую строку.

69
00:04:54,947 --> 00:04:57,427
И наш результат здесь.

70
00:04:57,567 --> 00:05:01,567
Эти конвейеры будут чрезвычайно полезны в вашей жизни как разработчика.

71
00:05:01,567 --> 00:05:05,567
Они позволят вам создавать сложные командны из коротких и простых...

72
00:05:05,567 --> 00:05:08,827
Они сделает именно то, что вы хотите.

73
00:05:08,918 --> 00:05:15,328
Вот почему мы собираемся сделать так, чтобы вы много упражнялись сегодня.
