1
00:00:06,118 --> 00:00:09,147
Давайте рассмотрим несколько новых команд, которые будут очень сподручны.

2
00:00:09,440 --> 00:00:10,936
и простыми, конечно.

3
00:00:10,936 --> 00:00:13,027
Мы не будем вдаваться в подробности.

4
00:00:13,027 --> 00:00:15,628
Первая команда называется "wc"

5
00:00:15,628 --> 00:00:18,295
Она просто вычисляет количество строк,

6
00:00:18,295 --> 00:00:19,650
символов и слов

7
00:00:19,650 --> 00:00:20,855
в файле.

8
00:00:20,855 --> 00:00:23,000
Поэтому, если я возьму наш файл из примера,

9
00:00:23,000 --> 00:00:25,933
и применю "wc" на него,

10
00:00:25,933 --> 00:00:28,162
мы видим, что там 400 строк, 405 слов

11
00:00:28,162 --> 00:00:30,137
и 7446 символов.

12
00:00:30,626 --> 00:00:33,873
"wc" может принимать более одного файла в качестве параметра.

13
00:00:34,156 --> 00:00:37,121
так что "wc *" даст мне общее

14
00:00:37,121 --> 00:00:39,200
количество строк, слов и символов

15
00:00:39,200 --> 00:00:40,758
для всех файлов в каталоге.

16
00:00:41,913 --> 00:00:43,253
Эта команда,

17
00:00:43,253 --> 00:00:45,430
как и любые другие команды, которые мы видели

18
00:00:45,430 --> 00:00:47,137
может читать со стандартного входа.

19
00:00:47,137 --> 00:00:49,803
Поэтому, если я вызову "cat" на наш файл,

20
00:00:49,803 --> 00:00:54,169
и получу число Томасов,

21
00:00:54,169 --> 00:00:57,384
а затем перенаправлю его с "wc -l", чтобы получить

22
00:00:57,404 --> 00:00:58,880
только количество строк ...

23
00:00:58,880 --> 00:01:00,779
Я вижу, что есть 7 Томасов

24
00:01:00,779 --> 00:01:02,293
в базе данных.

25
00:01:02,293 --> 00:01:04,128
Это очень удобно для подсчета результатов.

26
00:01:05,501 --> 00:01:07,540
Другая базовая команда,

27
00:01:07,540 --> 00:01:08,597
команда "file".

28
00:01:08,597 --> 00:01:10,239
"file" просто даст нам информацию

29
00:01:10,239 --> 00:01:13,610
о файле, переданном как параметр.

30
00:01:13,897 --> 00:01:16,390
Здесь мы видим, что этот файл находится в UFT-8

31
00:01:16,448 --> 00:01:20,564
и что это текстовый файл,

32
00:01:20,564 --> 00:01:23,346
также что это текстовый файл.

33
00:01:23,346 --> 00:01:25,332
мы можем видеть, что это 'magic' и т. д. ...

34
00:01:26,708 --> 00:01:28,722
Другая команда: "ifconfig",

35
00:01:28,722 --> 00:01:32,318
которая даёт информацию о вашей сети.

36
00:01:32,318 --> 00:01:33,907
С помощью "ifconfig" вы можете выводить свой IP-адрес

37
00:01:33,907 --> 00:01:36,402
и ваши MAC-адреса и т. д. ...

38
00:01:37,368 --> 00:01:40,409
Последняя простая команда (более или менее) - 

39
00:01:41,489 --> 00:01:44,124
Команда "bc".

40
00:01:44,124 --> 00:01:47,314
"bc" очень прост, это калькулятор.

41
00:01:47,633 --> 00:01:51,030
Поэтому, если вы наберете 2 + 3, он вернёт 5.

42
00:01:52,521 --> 00:01:56,572
Однако "bc" очень мощный! Он может выполнять научные вычисления,

43
00:01:56,860 --> 00:02:01,003
таких как синус, косинус, экспоненты, возведение в степень и т. д. ...

44
00:02:01,148 --> 00:02:06,123
Он может преобразовывать числовые основания: начинать с двоичной, а

45
00:02:06,235 --> 00:02:07,857
возвращать результат в шестнадцатиричной системе счисления и т. д.

46
00:02:07,857 --> 00:02:11,045
Так что "bc" вполне практичен, и, кроме того,

47
00:02:11,045 --> 00:02:14,171
он читает со стандартного ввода,

48
00:02:14,171 --> 00:02:16,507
поэтому, если я делаю "echo 1 + 2",

49
00:02:19,067 --> 00:02:21,531
и по конвейеру его передаю в "bc",

50
00:02:21,531 --> 00:02:23,280
вернётся 3.

51
00:02:23,280 --> 00:02:26,608
Предположим, я хочу рассчитать количество строк,

52
00:02:26,608 --> 00:02:28,560
или что-то типа того.

53
00:02:28,560 --> 00:02:32,378
"bc" позволяет мне это делать.

54
00:02:32,378 --> 00:02:35,322
Последняя команда, которую мы увидим в этом видео,

55
00:02:35,322 --> 00:02:38,842
немного сложнее, но всё равно не очень сложна.

56
00:02:38,842 --> 00:02:43,160
Команда "find".

57
00:02:43,160 --> 00:02:46,276
По умолчанию "find" считывает все файлы в каталоге,

58
00:02:46,276 --> 00:02:48,079
переданные как аргумент.

59
00:02:49,319 --> 00:02:50,848
Поэтому, если мы вызовем "find .",

60
00:02:50,848 --> 00:02:53,783
он перечислит все файлы, присутствующие в текущем каталоге.

61
00:02:54,213 --> 00:02:56,542
Если мы зададим "find /usr",

62
00:02:56,542 --> 00:02:59,059
он перечислит все файлы в / usr.

63
00:02:59,089 --> 00:03:01,616
Кстати, может осуществлять поиск рекурсивно,

64
00:03:01,616 --> 00:03:04,721
поэтому он также проходит через подкаталоги.

65
00:03:04,981 --> 00:03:07,689
"find" является мощным, потому что это позволяет нам

66
00:03:07,689 --> 00:03:09,066
фильтровать файлы, которые мы хотим.

67
00:03:09,356 --> 00:03:11,915
Пример простой фильтрации: Фильтр по имени.

68
00:03:11,915 --> 00:03:14,846
Скажем, я хочу, чтобы все файлы начинались с "ls"...

69
00:03:15,842 --> 00:03:18,713
Как видите, он возвращает все соответствующие файлы.

70
00:03:18,943 --> 00:03:21,398
Мы также можем фильтровать по дате последней модификации,

71
00:03:21,398 --> 00:03:23,578
по размеру,

72
00:03:23,578 --> 00:03:27,937
фильтровать в зависимости от того, является ли это файлом, каталогом или исполняемым.

73
00:03:28,838 --> 00:03:32,544
Он также позволяет выполнять действия над файлами...

74
00:03:32,684 --> 00:03:34,962
мы можем отображать их, удалять,

75
00:03:35,052 --> 00:03:39,208
или даже запускать другие команды.

76
00:03:40,748 --> 00:03:47,125
Если вы хотите узнать больше о своих возможностях, прочитайте его "man",

77
00:03:47,125 --> 00:03:51,602
посмотрите о нём в Интернете, проверьте, как люди его используют,

78
00:03:51,602 --> 00:03:54,897
возможности бесконечны.

79
00:03:56,427 --> 00:03:58,294
Последнее, что я хотел бы, чтобы мы увидели ...

80
00:03:58,704 --> 00:03:59,988
Окружение (The Environment).

81
00:04:00,068 --> 00:04:01,218
Что это?

82
00:04:01,388 --> 00:04:05,476
Это просто перечень переменных в Оболочке, который будет автоматически отправлен

83
00:04:05,516 --> 00:04:08,683
ко всем вашим двоичным файлам и скриптам.

84
00:04:10,193 --> 00:04:13,530
Поэтому, если мы сделаем "env", он отобразит перечень переменных.

85
00:04:13,530 --> 00:04:18,841
Мы видим, что он работает с помощью системы key/value. Таким образом, PATH имеет все эти значения.

86
00:04:19,921 --> 00:04:23,913
PATH можно использовать, чтобы сообщить Оболочке, где искать двоичные файлы.

87
00:04:23,913 --> 00:04:29,215
Здесь вы можете видеть, что пользователь называется "bocal",

88
00:04:29,215 --> 00:04:32,678
Вы можете увидеть используемый терминал, вот он xTerm и т. д. ...

89
00:04:33,608 --> 00:04:34,868
Чем это хорошо?

90
00:04:34,868 --> 00:04:38,756
Вы можете использовать его для настройки сценариев командной оболочки.

91
00:04:39,370 --> 00:04:46,330
Предположим, мы хотим добавить переменную LINE, соответствующую номеру строки, 

92
00:04:46,330 --> 00:04:51,535
которую ищет сценарий. Мы можем сделать LINE = 3.

93
00:04:52,615 --> 00:04:57,215
Если мы посмотрим на среду, то была создана переменная LINE со значением 3.

94
00:04:58,295 --> 00:05:01,475
если вы хотите получить к ей доступ, просто введите "$LINE".

95
00:05:01,985 --> 00:05:07,328
Если мы сделаем "echo" для "$LINE", будет отображено 3...

96
00:05:07,328 --> 00:05:12,330
потому что $LINE просто будет заменена её значением.

97
00:05:12,689 --> 00:05:17,483
Таким образом, эти переменные должны позволять вам настраивать сценарии командной оболочки,

98
00:05:17,483 --> 00:05:20,961
и позже, помогать вам настроить то, что мы называем Makefiles

99
00:05:20,961 --> 00:05:24,360
для изменения поведения в зависимости от переменных среды.
