1
00:00:06,801 --> 00:00:11,111
В этой второй части D06 мы поговорим о <b>аргументах</b> программы.

2
00:00:11,111 --> 00:00:14,741
Вы знаете, что "ls" может принимать "-l", чтобы отображать детали

3
00:00:14,741 --> 00:00:17,131
каталога.

4
00:00:17,131 --> 00:00:19,741
То, что вы научились делать за это время,

5
00:00:19,741 --> 00:00:22,481
так это запускает ваш двоичный файл.

6
00:00:22,481 --> 00:00:26,601
Но если бы вы добавили аргументы, ничего бы не изменилось.

7
00:00:27,161 --> 00:00:30,451
Позвольте мне быстро переписать мою суперкрутой main.

8
00:00:35,841 --> 00:00:38,211
Я собираюсь вывести на экран "bonjour" ("привет" по-французски).

9
00:00:43,481 --> 00:00:47,121
Полагаю, трудно не согласиться с тем, что

10
00:00:51,132 --> 00:00:54,572
делаю ли я то или иное,

11
00:00:54,572 --> 00:00:57,052
результат всегда будет одним и тем же.

12
00:00:57,052 --> 00:01:00,112
Вы не знаете, как применить то, что я написал... Пока...

13
00:01:00,112 --> 00:01:02,462
Я имею ввиду параметры, которые

14
00:01:02,462 --> 00:01:03,622
ваш двоичный код может принять.

15
00:01:03,628 --> 00:01:08,438
Мы говорили вам, что ваша main может принимать

16
00:01:08,438 --> 00:01:11,828
два аргумента.

17
00:01:20,000 --> 00:01:23,040
Это благодаря тем, которые вы можете

18
00:01:23,040 --> 00:01:26,050
получать. Те самые параметры, которые могут быть переданы в ваш двоичный файл.

19
00:01:27,891 --> 00:01:32,531
argc представляет собой количество параметров,

20
00:01:32,531 --> 00:01:38,511
которые вы можете передать программе, а argv - <b>char</b> ** -

21
00:01:38,511 --> 00:01:41,691
иными словами, массив строк,

22
00:01:41,691 --> 00:01:45,501
который будет содержать эти параметры.

23
00:01:46,191 --> 00:01:48,961
Итак, я явить миру

24
00:01:51,102 --> 00:01:54,222
мой первый параметр,

25
00:02:03,321 --> 00:02:07,321
тут дальше идёт разрыв строки.

26
00:02:10,991 --> 00:02:12,661
Перекомпиляции...

27
00:02:14,533 --> 00:02:21,343
Здесь я вижу, что даже без аргументов выведено "a.out".

28
00:02:23,050 --> 00:02:29,040
Поскольку первый элемент строкового массива - это

29
00:02:29,040 --> 00:02:33,040
имя вашего двоичного кода.

30
00:02:36,922 --> 00:02:42,182
Если бы я запустил свой двоичный файл из другого места,

31
00:02:45,011 --> 00:02:49,011
argv[0] будет иметь путь до двоичного файла и его имя.

32
00:02:51,135 --> 00:02:56,375
Итак, в первом поле <b>argv</b> у вас находится имя двоичного файла,

33
00:02:57,371 --> 00:02:59,881
он же первый элемент в командной строке.

34
00:03:01,181 --> 00:03:05,681
Если я хочу получить первый аргумент,

35
00:03:09,081 --> 00:03:12,331
то должен получить доступ к <b>argv[1]</b>.

36
00:03:15,641 --> 00:03:19,211
Но если я не задам аргумент, я получу "segfault".

37
00:03:19,347 --> 00:03:23,347
Мы не можем читать из пустого массива.

38
00:03:25,102 --> 00:03:27,152
Однако, если я это сделаю, это сработает.

39
00:03:27,692 --> 00:03:30,032
Если я сделаю это, всё равно работает!

40
00:03:31,012 --> 00:03:33,342
Но если я сделаю это...

41
00:03:33,342 --> 00:03:35,082
выведен будет только 1-й аргумент.

42
00:03:35,082 --> 00:03:38,752
Трюк - использовать кавычки

43
00:03:39,971 --> 00:03:46,971
для группировки нескольких аргументов в одну строку.

44
00:03:51,305 --> 00:03:58,935
Можно сказать, что argc всегда не меньше 1.

45
00:03:58,982 --> 00:04:01,772
поскольку argv[0] всегда заполнен.

46
00:04:01,772 --> 00:04:06,142
Затем вы сможете передать параметры argv[1],

47
00:04:06,142 --> 00:04:07,432
как с "ls" делают,

48
00:04:07,432 --> 00:04:10,412
с его параметром "-l" или любым другим двоичным кодом с вариантами.

49
00:04:10,412 --> 00:04:15,642
Всё это позволяет вам быть немного более эффективным с вашей программой,

50
00:04:15,642 --> 00:04:19,722
потому что так можете использовать условия.

51
00:04:20,013 --> 00:04:24,013
Например, давайте попросим, ​​чтобы argv[1] отображался,

52
00:04:24,013 --> 00:04:26,523
только если argc равно 2.

53
00:04:29,663 --> 00:04:32,543
Таким образом, мы избегаем "segfault",

54
00:04:32,543 --> 00:04:35,483
тем что мы проверяем наличие аргумента.

55
00:04:35,573 --> 00:04:38,433
и мы позволяем отображать его, если он существует.

56
00:04:39,500 --> 00:04:45,430
Таким образом, нам не нужно проверять, существует ли эта строка.

57
00:04:46,230 --> 00:04:50,700
Благодаря argc мы можем знать, сколько аргументов у нас есть.

58
00:04:51,291 --> 00:04:54,261
Мы также можем использовать argc для отображения

59
00:04:54,261 --> 00:04:58,471
одного за другим переданные вашей программе параметры

60
00:04:58,471 --> 00:05:00,351
путём просмотра массива.

61
00:05:00,711 --> 00:05:02,181
Это также может позволить нам

62
00:05:02,181 --> 00:05:05,144
указать, нужен ли программе аргумент,

63
00:05:05,144 --> 00:05:08,447
и в случае, когда они не существуют,

64
00:05:08,847 --> 00:05:11,751
сказать пользователю,

65
00:05:12,251 --> 00:05:15,514
что программа нуждается

66
00:05:15,514 --> 00:05:19,147
в определённом количество аргументов.

67
00:05:19,911 --> 00:05:22,621
Мы также можем предупредить их, что программа

68
00:05:22,621 --> 00:05:24,941
принимает "toto" в качестве аргумента.

69
00:05:34,895 --> 00:05:39,815
Так что вы можете сообщать пользователю

70
00:05:39,815 --> 00:05:45,295
о том, как правильно использовать вашу программу.

71
00:05:48,241 --> 00:05:51,461
С этими примерами вы можете начать воображать

72
00:05:51,461 --> 00:05:55,461
количество доступных вам возможностей, чтобы сотворить вашу программу

73
00:05:55,461 --> 00:06:02,181
более удобной для пользователей.

74
00:06:02,271 --> 00:06:09,921
Да-а-а, остерегайся "segfault". Это заставит вас пытаться предвидеть, что

75
00:06:09,921 --> 00:06:13,231
пользователь может попытаться сделать.

76
00:06:13,582 --> 00:06:16,382
До сих пор у вас не было этого ограничения.

77
00:06:16,382 --> 00:06:19,752
Вы запускали свой двоичный файл, будучи уверенным, что вы и только вы,

78
00:06:19,752 --> 00:06:22,252
выбаете, как он себя поведёт.

79
00:06:22,252 --> 00:06:27,062
Но теперь, когда вы разрешаете другим пользователям взаимодействовать с вашей программой,

80
00:06:27,062 --> 00:06:30,412
вы никогда не будете уверены в том, что именно они попробуют передать в качестве аргументов.

81
00:06:30,412 --> 00:06:33,732
Мы-то, конечно, знаем, что делаем, и

82
00:06:33,732 --> 00:06:36,432
знаем, что вы можете забыть.

83
00:06:36,432 --> 00:06:38,782
Так что вот небольшой совет:

84
00:06:38,782 --> 00:06:42,572
будьте осторожны и помните

85
00:06:42,572 --> 00:06:46,352
что вы никогда не сможете угадать всё, что пользователь

86
00:06:46,352 --> 00:06:49,161
может передать вашей программе.

87
00:06:50,101 --> 00:06:53,301
Поэтому тщательно проверьте свои аргументы и проверьте всё, что вы делаете.
